%YAML 1.1
%TAG !u! tag:unity3d.com,2011:
--- !u!114 &11400000
MonoBehaviour:
  m_ObjectHideFlags: 0
  m_CorrespondingSourceObject: {fileID: 0}
  m_PrefabInstance: {fileID: 0}
  m_PrefabAsset: {fileID: 0}
  m_GameObject: {fileID: 0}
  m_Enabled: 1
  m_EditorHideFlags: 0
  m_Script: {fileID: 11500000, guid: c3680d3d3147e6048bbc79ee47001978, type: 3}
  m_Name: EnemySettings
  m_EditorClassIdentifier: 
  finishDistance: 6
  startDistance: 50
  overtakeDistance: 2
  catchDistance: 20
  startSpeed: 20
  spawnInterval: 50
  attackInterval: 30
  outzoneMaxTime: 3
  outzoneDistanceFactor: 1.75
  archPrefab: {fileID: 3293678456337470635, guid: baa7de000d19a2a4f8259c1cef7eab0a, type: 3}
  finishBeamPrefab: {fileID: 724365295962439534, guid: 99b018dbe076c35468477e69f1fcd331, type: 3}
  electricAttackPrefab: {fileID: -8160825497727516421, guid: 84ccfe5152ec7484bb580d7ee309978b, type: 3}
  cameraSmoothTime: 5
  cameraOffset: {x: 0, y: 1, z: -5}
