%YAML 1.1
%TAG !u! tag:unity3d.com,2011:
--- !u!114 &11400000
MonoBehaviour:
  m_ObjectHideFlags: 0
  m_CorrespondingSourceObject: {fileID: 0}
  m_PrefabInstance: {fileID: 0}
  m_PrefabAsset: {fileID: 0}
  m_GameObject: {fileID: 0}
  m_Enabled: 1
  m_EditorHideFlags: 0
  m_Script: {fileID: 11500000, guid: 874d4295ce6fc534bb80a75fafb7dd8c, type: 3}
  m_Name: RandomSettings
  m_EditorClassIdentifier: 
  directionWeight: 50
  roadSize: {x: 1, y: 3}
  length: {x: 1, y: 5}
  width: {x: 1, y: 3}
